Billionaire Wealth
…
billionaires_2014 |>
  group_by(location.citizenship) |>
   summarize(m_citizen = mean(wealth.worth),
            me_citizen = median(wealth.worth),
            sd_citizen = sd(wealth.worth),
            na.rm = T)

# A tibble: 69 × 5
   location.citizenship m_citizen me_citizen sd_citizen na.rm
   <chr>                    <dbl>      <dbl>      <dbl> <lgl>
 1 Algeria                   3.2        3.2       NA    TRUE 
 2 Angola                    3.7        3.7       NA    TRUE 
 3 Argentina                 2.26       1.5        1.83 TRUE 
 4 Australia                 2.94       1.8        3.27 TRUE 
 5 Austria                   3.38       2.25       2.83 TRUE 
 6 Belgium                   2.67       1.7        1.94 TRUE 
 7 Brazil                    2.96       1.8        3.44 TRUE 
 8 Canada                    3.52       2.2        3.93 TRUE 
 9 Chile                     3.44       2.45       3.89 TRUE 
10 China                     2.47       1.7        2.35 TRUE 
# … with 59 more rows
…
